…
The following tibble used for the analysis of each research question is
in tidy format.

``` r
tibble(cancer_sample) %>% 
  select(diagnosis, radius_mean, perimeter_mean, area_mean, smoothness_mean, symmetry_mean) %>%
  mutate(category_symmetry = cut(symmetry_mean, 
                        breaks = 3,
                      labels = c("low","medium","high")))
```

    ## # A tibble: 569 × 7
    ##    diagnosis radius_mean perimeter_mean area_mean smoothness_mean symmetry_mean
    ##    <chr>           <dbl>          <dbl>     <dbl>           <dbl>         <dbl>
    ##  1 M                18.0          123.      1001           0.118          0.242
    ##  2 M                20.6          133.      1326           0.0847         0.181
    ##  3 M                19.7          130       1203           0.110          0.207
    ##  4 M                11.4           77.6      386.          0.142          0.260
    ##  5 M                20.3          135.      1297           0.100          0.181
    ##  6 M                12.4           82.6      477.          0.128          0.209
    ##  7 M                18.2          120.      1040           0.0946         0.179
    ##  8 M                13.7           90.2      578.          0.119          0.220
    ##  9 M                13             87.5      520.          0.127          0.235
    ## 10 M                12.5           84.0      476.          0.119          0.203
    ## # … with 559 more rows, and 1 more variable: category_symmetry <fct>
…
In this next example, the data will be untidied. The data will now
include a new column with multiple variables, observations, and values
within the `age_sex` column.

``` r
tibble(cancer_sample) %>% 
  select(diagnosis, radius_mean, perimeter_mean, area_mean, smoothness_mean, symmetry_mean) %>%
  mutate(category_symmetry = cut(symmetry_mean, 
                        breaks = 3,
                      labels = c("low","medium","high"))) %>%
  mutate(age_sex = sample(c("male","female", 18:85), size = 569, rep = TRUE)) #add untidy column 
```

    ## # A tibble: 569 × 8
    ##    diagnosis radius_mean perimeter_mean area_mean smoothness_mean symmetry_mean
    ##    <chr>           <dbl>          <dbl>     <dbl>           <dbl>         <dbl>
    ##  1 M                18.0          123.      1001           0.118          0.242
    ##  2 M                20.6          133.      1326           0.0847         0.181
    ##  3 M                19.7          130       1203           0.110          0.207
    ##  4 M                11.4           77.6      386.          0.142          0.260
    ##  5 M                20.3          135.      1297           0.100          0.181
    ##  6 M                12.4           82.6      477.          0.128          0.209
    ##  7 M                18.2          120.      1040           0.0946         0.179
    ##  8 M                13.7           90.2      578.          0.119          0.220
    ##  9 M                13             87.5      520.          0.127          0.235
    ## 10 M                12.5           84.0      476.          0.119          0.203
    ## # … with 559 more rows, and 2 more variables: category_symmetry <fct>,
    ## #   age_sex <chr>
…
``` r
tibble(cancer_sample) %>% 
  select(diagnosis, radius_mean, perimeter_mean, area_mean, smoothness_mean, symmetry_mean) %>%
  mutate(category_symmetry = cut(symmetry_mean, 
                        breaks = 3,
                      labels = c("low","medium","high"))) %>% 
  mutate(age_sex = sample(c("male","female", 18:85), size = 569, rep = TRUE)) %>%
  mutate(category_symmetry = cut(symmetry_mean, 
                        breaks = 3,
                      labels = c("low","medium","high"))) %>%
  select(-age_sex) #delete column and return to original
```

    ## # A tibble: 569 × 7
    ##    diagnosis radius_mean perimeter_mean area_mean smoothness_mean symmetry_mean
    ##    <chr>           <dbl>          <dbl>     <dbl>           <dbl>         <dbl>
    ##  1 M                18.0          123.      1001           0.118          0.242
    ##  2 M                20.6          133.      1326           0.0847         0.181
    ##  3 M                19.7          130       1203           0.110          0.207
    ##  4 M                11.4           77.6      386.          0.142          0.260
    ##  5 M                20.3          135.      1297           0.100          0.181
    ##  6 M                12.4           82.6      477.          0.128          0.209
    ##  7 M                18.2          120.      1040           0.0946         0.179
    ##  8 M                13.7           90.2      578.          0.119          0.220
    ##  9 M                13             87.5      520.          0.127          0.235
    ## 10 M                12.5           84.0      476.          0.119          0.203
    ## # … with 559 more rows, and 1 more variable: category_symmetry <fct>
…
**Proposed additions to questions**:

1.  Are `area_mean` and `symmetry_mean` both significant predictors of a
    malignant diagnosis?

``` r
tibble(cancer_sample) %>%
  mutate(-radius_mean) %>% #remove column
  select(diagnosis, area_mean, symmetry_mean) %>% #select only these variables
  filter(area_mean < 2300) %>% #eliminate potential outliers
  arrange(desc(area_mean))
```

    ## # A tibble: 567 × 3
    ##    diagnosis area_mean symmetry_mean
    ##    <chr>         <dbl>         <dbl>
    ##  1 M              2250         0.18 
    ##  2 M              2010         0.196
    ##  3 M              1878         0.183
    ##  4 M              1841         0.199
    ##  5 M              1761         0.266
    ##  6 M              1747         0.180
    ##  7 M              1686         0.180
    ##  8 M              1685         0.22 
    ##  9 M              1682         0.150
    ## 10 M              1670         0.191
    ## # … with 557 more rows

2.  Is the difference of means between the categories of `symmetry_mean`
    (low, medium, high) statistically significant?

``` r
tibble(cancer_sample) %>%
   mutate(category_symmetry = cut(symmetry_mean, 
                        breaks = 3,
                      labels = c("low","medium","high"))) %>%
  select(diagnosis, symmetry_mean, category_symmetry) %>% # select only these variables
  filter(symmetry_mean < 0.3) %>% #eliminate potential outliers
  arrange(desc(symmetry_mean))
```

    ## # A tibble: 568 × 3
    ##    diagnosis symmetry_mean category_symmetry
    ##    <chr>             <dbl> <fct>            
    ##  1 M                 0.291 high             
    ##  2 B                 0.274 high             
    ##  3 M                 0.268 high             
    ##  4 M                 0.266 high             
    ##  5 M                 0.260 high             
    ##  6 B                 0.260 high             
    ##  7 M                 0.257 high             
    ##  8 M                 0.256 high             
    ##  9 B                 0.255 high             
    ## 10 B                 0.254 high             
    ## # … with 558 more rows
