…
### **New tibble**

The \``cancer_sample` includes 32 unique variables. A new tibble can be
created to include the variables most interesting to the author. For the
purpose of model building, this parsed tibble will help to create an
efficient workflow.

``` r
tibble(cancer_sample) %>% #make new tibble of interested variables
  select(diagnosis, radius_mean, perimeter_mean, area_mean, smoothness_mean, symmetry_mean)
```

    ## # A tibble: 569 × 6
    ##    diagnosis radius_mean perimeter_mean area_mean smoothness_mean symmetry_mean
    ##    <chr>           <dbl>          <dbl>     <dbl>           <dbl>         <dbl>
    ##  1 M                18.0          123.      1001           0.118          0.242
    ##  2 M                20.6          133.      1326           0.0847         0.181
    ##  3 M                19.7          130       1203           0.110          0.207
    ##  4 M                11.4           77.6      386.          0.142          0.260
    ##  5 M                20.3          135.      1297           0.100          0.181
    ##  6 M                12.4           82.6      477.          0.128          0.209
    ##  7 M                18.2          120.      1040           0.0946         0.179
    ##  8 M                13.7           90.2      578.          0.119          0.220
    ##  9 M                13             87.5      520.          0.127          0.235
    ## 10 M                12.5           84.0      476.          0.119          0.203
    ## # … with 559 more rows
…
