…
    ## # A tibble: 2 × 5
    ##   term        estimate std.error statistic   p.value
    ##   <chr>          <dbl>     <dbl>     <dbl>     <dbl>
    ## 1 (Intercept)     463.      13.1      35.2 8.99e-145
    ## 2 diagnosisM      516.      21.5      23.9 4.73e- 88

I have also decided to use the `broom` package to make predictions on
`area_mean` based on diagnosis. An interesting future question could
look at prediction models based on a greater number of variables.

``` r
augment(lm(area_mean ~ diagnosis, data = cancer_sample))
```

    ## # A tibble: 569 × 8
    ##    area_mean diagnosis .fitted .resid    .hat .sigma   .cooksd .std.resid
    ##        <dbl> <chr>       <dbl>  <dbl>   <dbl>  <dbl>     <dbl>      <dbl>
    ##  1     1001  M            978.   22.6 0.00472   249. 0.0000198     0.0913
    ##  2     1326  M            978.  348.  0.00472   248. 0.00466       1.40  
    ##  3     1203  M            978.  225.  0.00472   248. 0.00195       0.906 
    ##  4      386. M            978. -592.  0.00472   247. 0.0135       -2.39  
    ##  5     1297  M            978.  319.  0.00472   248. 0.00392       1.29  
    ##  6      477. M            978. -501.  0.00472   248. 0.00970      -2.02  
    ##  7     1040  M            978.   61.6 0.00472   249. 0.000147      0.249 
    ##  8      578. M            978. -400.  0.00472   248. 0.00619      -1.62  
    ##  9      520. M            978. -459.  0.00472   248. 0.00811      -1.85  
    ## 10      476. M            978. -502.  0.00472   248. 0.00974      -2.03  
    ## # … with 559 more rows
…
